DDS_Case_Study_27JUN2020_2238.utf8
…
library(knitr)

title: DDS_Case_Study author: D. Dey & C. Dawson date: 6/27/2020 output: html_document 

How many breweries are present in each state?

## # A tibble: 51 x 2
##    State     n
##    <chr> <int>
##  1 " CO"    47
##  2 " CA"    39
##  3 " MI"    32
##  4 " OR"    29
##  5 " TX"    28
##  6 " PA"    25
##  7 " MA"    23
##  8 " WA"    23
##  9 " IN"    22
## 10 " WI"    20
## # ... with 41 more rows
…
Address the missing values in each columns.

## There are 2410 rows before removing all rows with 'NA' from the Beer-Brewery data and 1405 thereafter.

Compute the median alcohol content and international bitterness unit for each state. Plot a bar chart to compare.

Which state has the maximum alcoholic (ABV) beer? Which state has the most bitter (IBU) beer?

## # A tibble: 1,405 x 3
## # Groups:   State [50]
##    State   ABV   IBU
##    <chr> <dbl> <int>
##  1 " MN" 0.045    50
##  2 " MN" 0.049    26
##  3 " MN" 0.048    19
##  4 " MN" 0.06     38
##  5 " MN" 0.06     25
##  6 " MN" 0.056    47
##  7 " KY" 0.08     68
##  8 " KY" 0.125    80
##  9 " KY" 0.077    25
## 10 " KY" 0.042    42
## # ... with 1,395 more rows

## `summarise()` ungrouping output (override with `.groups` argument)

## # A tibble: 50 x 3
##    State ABV_Median   IBU
##    <chr>      <dbl> <dbl>
##  1 " AK"     0.057   40.9
##  2 " AL"     0.06    51.2
##  3 " AR"     0.04    39  
##  4 " AZ"     0.0575  35.2
##  5 " CA"     0.058   46.3
##  6 " CO"     0.065   47.4
##  7 " CT"     0.061   40.8
##  8 " DC"     0.059   55.2
##  9 " DE"     0.055   52  
## 10 " FL"     0.062   46.8
## # ... with 40 more rows
…
icluster <- kmeans(IPA[,1:2],2,nstart = 20)
kmeans_matrix = table(icluster$cluster,IPA$IPA)
kmeans_matrix

##    
##       N   Y
##   1  91 332
##   2 461  60

###Observed best k-means is 30 based on 200 iterations. Our knn-means classification with a precision of 88.5% and recall of 83.5%. This model better with precision, but lacks recall.

Knock their socks off! Find one other useful inference from the data that you feel Budweiser may be able to find value in. You must convince them why it is important and back up your conviction with appropriate statistical evidence.

## # A tibble: 1,405 x 3
##    Ounces State Containers
##     <dbl> <fct> <fct>     
##  1     16 " MN" 16        
##  2     16 " MN" 16        
##  3     16 " MN" 16        
##  4     16 " MN" 16        
##  5     16 " MN" 16        
##  6     16 " MN" 16        
##  7     16 " KY" 16        
##  8     16 " KY" 16        
##  9     16 " KY" 16        
## 10     16 " KY" 16        
## # ... with 1,395 more rows

## # A tibble: 95 x 3
##    State Containers     n
##    <fct> <fct>      <int>
##  1 " CO" 12           109
##  2 " IN" 16            84
##  3 " CA" 12            77
##  4 " TX" 12            71
##  5 " OR" 12            55
##  6 " CA" 16            51
##  7 " PA" 12            43
##  8 " MA" 12            42
##  9 " FL" 12            36
## 10 " OR" 16            32
## # ... with 85 more rows

## # A tibble: 95 x 3
##    State Containers     n
##    <fct> <fct>      <int>
##  1 " AK" 12            17
##  2 " AL" 12             9
##  3 " AR" 12             1
##  4 " AZ" 12            21
##  5 " AZ" 16             3
##  6 " CA" 8.4            1
##  7 " CA" 12            77
##  8 " CA" 16            51
##  9 " CA" 24             3
## 10 " CA" 32             3
## # ... with 85 more rows
…
